^C:\USERS\SWEYLO\DESKTOP\DND_INIT\INIT.CPP
C:\USERS\SWEYLO\DESKTOP\DND_INIT\DEBUG\INIT.OBJ
C:\USERS\SWEYLO\DESKTOP\DND_INIT\DEBUG\VC110.PDB
^C:\USERS\NICHOLL3\DESKTOP\DND_INIT\INIT.CPP
C:\USERS\NICHOLL3\DESKTOP\DND_INIT\DEBUG\INIT.OBJ
C:\USERS\NICHOLL3\DESKTOP\DND_INIT\DEBUG\VC110.PDB
